…
• Formatting the tail data...
  Done!
• Saving the data in the CSV file...
  Done! Below is the path of the CSV file:
  /work/upnae/thomas_trna/data/pU_2.csv
• A logfile containing all this information has been saved in this path: 
  /work/upnae/thomas_trna/data/2021-10-30_13-50-05_tailfinder.log
── Processing ended at 2021-10-30 14:01:02 ─────────────────────────────────────
✔ tailfindr finished successfully!
# A tibble: 4,000 × 6
   read_id       tail_start tail_end samples_per_nt tail_length file_path       
   <chr>              <dbl>    <dbl>          <dbl>       <dbl> <chr>           
 1 006829fa-41c…       9042    15992           35.4       191.  /work/upnae/ONT…
 2 00c162ef-cbd…       7919    17019           45.1       197.  /work/upnae/ONT…
 3 00192d08-b3e…       4284    12584          283.         24.3 /work/upnae/ONT…
 4 002ca552-bfa…      13571    22921          786.          6.9 /work/upnae/ONT…
 5 00836130-8aa…       7533    16183           31.6       269.  /work/upnae/ONT…
 6 0084ccb4-8a5…      13685    23710           62.2       156.  /work/upnae/ONT…
 7 00577ee0-1a0…       8461    17036           40.9       205.  /work/upnae/ONT…
 8 00e4065e-a04…       5944    14369           31.4       263.  /work/upnae/ONT…
 9 00f58379-5a7…       6215    17515           49.6       223.  /work/upnae/ONT…
10 00182b59-9b3…       6215    13390           37.1       189.  /work/upnae/ONT…
# … with 3,990 more rows
…
