…
• Formatting the tail data...
  Done!
• Saving the data in the CSV file...
  Done! Below is the path of the CSV file:
  /work/upnae/thomas_trna/data/pU_stoch_12.csv
• A logfile containing all this information has been saved in this path: 
  /work/upnae/thomas_trna/data/2021-10-30_14-00-38_tailfinder.log
── Processing ended at 2021-10-30 15:03:23 ─────────────────────────────────────
✔ tailfindr finished successfully!
# A tibble: 20,000 × 6
   read_id      tail_start tail_end samples_per_nt tail_length file_path        
   <chr>             <dbl>    <dbl>          <dbl>       <dbl> <chr>            
 1 aba6f8b1-d1…       3622     9897           25.4        242. /work/upnae/ONT_…
 2 43a48ab6-a6…       5593    10218           23.7        190. /work/upnae/ONT_…
 3 20709096-4a…      11041    15616           27.7        160. /work/upnae/ONT_…
 4 e0cbaccc-33…       6816    13741           26.4        257. /work/upnae/ONT_…
 5 38fd6db5-4d…       5285    13785           26.7        313. /work/upnae/ONT_…
 6 85fa68ee-3d…       8572    12522           31.2        122. /work/upnae/ONT_…
 7 e7bea985-bf…       5996     9146           27.8        108. /work/upnae/ONT_…
 8 b7b83d02-58…       4480     8180           25.8        138. /work/upnae/ONT_…
 9 7ea09804-e4…       4135    13285           24.5        368. /work/upnae/ONT_…
10 47b65a3d-82…       6890    15665           29.9        288. /work/upnae/ONT_…
# … with 19,990 more rows
…
